…
# The base url of the CIDA THREDDS server
cida <- "https://cida.usgs.gov/thredds/"

datasets <- tds_list_datasets(thredds_url = cida)
datasets
#> # A tibble: 110 x 3
#>    dataset                                 path                      type 
#>    <chr>                                   <chr>                     <chr>
#>  1 CIDA THREDDS Holdings                   https://cida.usgs.gov/th… data…
#>  2 Parameter-elevation Regressions on Ind… https://cida.usgs.gov/th… data…
#>  3 Parameter-elevation Regressions on Ind… https://cida.usgs.gov/th… data…
#>  4 Gridded Meteorological Observations 19… https://cida.usgs.gov/th… data…
#>  5 Gridded Meteorological Observations 19… https://cida.usgs.gov/th… data…
#>  6 University of Idaho Gridded Surface Me… https://cida.usgs.gov/th… data…
#>  7 National Stage IV Quantitative Precipi… https://cida.usgs.gov/th… data…
#>  8 Future LOCA                             https://cida.usgs.gov/th… data…
#>  9 Historical LOCA                         https://cida.usgs.gov/th… data…
#> 10 Daily Future MACAv2METDATA              https://cida.usgs.gov/th… data…
#> # ... with 100 more rows
```
…
``` r
loca_ncss <- loca_services[loca_services$service == "NetcdfSubset",]$path
loca_ncss
#> [1] "https://cida.usgs.gov/thredds/ncss/loca_future/dataset.html"

loca_vars <- tds_ncss_list_vars(ncss_url = loca_ncss)
loca_vars
#> # A tibble: 180 x 11
#>    name     desc  shape  type  units  `_FillValue` long_name missing_value
#>    <chr>    <chr> <chr>  <chr> <chr>  <chr>        <chr>     <chr>        
#>  1 pr_ACCE… pr    time … float kg m-… 1.0E30       pr        1.0000000150…
#>  2 pr_ACCE… pr    time … float kg m-… 1.0E30       pr        1.0000000150…
#>  3 pr_ACCE… pr    time … float kg m-… 1.0E30       pr        1.0000000150…
#>  4 pr_ACCE… pr    time … float kg m-… 1.0E30       pr        1.0000000150…
#>  5 pr_CCSM… pr    time … short mm     -9999        pr        -9999        
#>  6 pr_CCSM… pr    time … short mm     -9999        pr        -9999        
#>  7 pr_CESM… pr    time … short mm     -9999        pr        -9999        
#>  8 pr_CESM… pr    time … short mm     -9999        pr        -9999        
#>  9 pr_CESM… pr    time … short mm     -9999        pr        -9999        
#> 10 pr_CESM… pr    time … short mm     -9999        pr        -9999        
#> # ... with 170 more rows, and 3 more variables: history <chr>,
#> #   `_ChunkSizes` <chr>, scale_factor <chr>
```
…
